{
    "parameters": [
        {
            "name": "start_date",
            "label": "Start Date",
            "description": "Start date for the DAG run",
            "type": "date",
            "options": []
        },
        {
            "name": "documents_urls",
            "label": "Documents URLs",
            "description": "List of documents URLs to download",
            "type": "string",
            "options": []
        },
       
    ]
}